src/Data/3/0/A/DS0000.CSV

Memory Length,4000,
Trigger Level,6.60000e+01,
Source,CH1,
Probe,1.0X,
Vertical Units,V,
Vertical Scale,5.00000e-02,
Vertical Position,0.00000e+00,
Horizontal Units,S,
Horizontal Scale,2.50000e-03,
Horizontal Position,0.0000000e+00,
Horizontal Mode,Main,
Sampling Period,1.00000e-05,
Firmware,V1.14,
Time, ,
Mode,Fast,
Waveform Data,
2,
2,
2,
1,
1,
2,
2,
2,
2,
0,
0,
1,
1,
0,
0,
0,
0,
-1,
-1,
0,
0,
1,
1,
1,
1,
2,
2,
1,
1,
2,
2,
0,
0,
1,
1,
0,
0,
-1,
-1,
-1,
-1,
-1,
-1,
-1,
-1,
0,
0,
0,
0,
0,
0,
2,
2,
0,
0,
2,
2,
4,
4,
3,
3,
2,
2,
5,
5,
4,
4,
2,
2,
3,
3,
4,
4,
3,
3,
5,
5,
2,
2,
4,
4,
4,
4,
5,
5,
5,
5,
4,
4,
3,
3,
5,
5,
6,
6,
5,
5,
4,
4,
6,
6,
6,
6,
5,
5,
4,
4,
4,
4,
3,
3,
3,
3,
3,
3,
3,
3,
4,
4,
3,
3,
3,
3,
4,
4,
3,
3,
4,
4,
3,
3,
5,
5,
5,
5,
4,
4,
5,
5,
5,
5,
5,
5,
6,
6,
6,
6,
5,
5,
5,
5,
4,
4,
3,
3,
4,
4,
2,
2,
4,
4,
2,
2,
3,
3,
3,
3,
4,
4,
2,
2,
2,
2,
2,
2,
2,
2,
3,
3,
2,
2,
2,
2,
1,
1,
2,
2,
2,
2,
3,
3,
2,
2,
1,
1,
2,
2,
3,
3,
1,
1,
-1,
-1,
1,
1,
1,
1,
1,
1,
1,
1,
1,
1,
3,
3,
2,
2,
2,
2,
3,
3,
2,
2,
7,
7,
5,
5,
4,
4,
5,
5,
5,
5,
0,
0,
4,
4,
2,
2,
-1,
-1,
3,
3,
0,
0,
0,
0,
0,
0,
1,
1,
-2,
-2,
-1,
-1,
-2,
-2,
-4,
-4,
-6,
-6,
-6,
-6,
-5,
-5,
-4,
-4,
-6,
-6,
-7,
-7,
-7,
-7,
-6,
-6,
-7,
-7,
-5,
-5,
-8,
-8,
-5,
-5,
-6,
-6,
-5,
-5,
-6,
-6,
-4,
-4,
-3,
-3,
-3,
-3,
-2,
-2,
-3,
-3,
-1,
-1,
-1,
-1,
0,
0,
1,
1,
-2,
-2,
2,
2,
3,
3,
3,
3,
6,
6,
7,
7,
7,
7,
7,
7,
10,
10,
10,
10,
11,
11,
10,
10,
11,
11,
10,
10,
10,
10,
9,
9,
6,
6,
7,
7,
5,
5,
6,
6,
4,
4,
3,
3,
2,
2,
0,
0,
0,
0,
-5,
-5,
-7,
-7,
-8,
-8,
-11,
-11,
-13,
-13,
-14,
-14,
-18,
-18,
-19,
-19,
-22,
-22,
-23,
-23,
-27,
-27,
-28,
-28,
-28,
-28,
-32,
-32,
-33,
-33,
-38,
-38,
-39,
-39,
-41,
-41,
-44,
-44,
-45,
-45,
-47,
-47,
-48,
-48,
-49,
-49,
-52,
-52,
-50,
-50,
-49,
-49,
-53,
-53,
-52,
-52,
-54,
-54,
-54,
-54,
-54,
-54,
-56,
-56,
-54,
-54,
-52,
-52,
-55,
-55,
-55,
-55,
-55,
-55,
-54,
-54,
-51,
-51,
-49,
-49,
-50,
-50,
-48,
-48,
-45,
-45,
-45,
-45,
-42,
-42,
-42,
-42,
-41,
-41,
-38,
-38,
-39,
-39,
-38,
-38,
-37,
-37,
-35,
-35,
-35,
-35,
-35,
-35,
-33,
-33,
-29,
-29,
-29,
-29,
-27,
-27,
-28,
-28,
-27,
-27,
-29,
-29,
-26,
-26,
-29,
-29,
-31,
-31,
-31,
-31,
-31,
-31,
-31,
-31,
-30,
-30,
-27,
-27,
-31,
-31,
-26,
-26,
-26,
-26,
-24,
-24,
-21,
-21,
-24,
-24,
-21,
-21,
-20,
-20,
-19,
-19,
-16,
-16,
-17,
-17,
-12,
-12,
-10,
-10,
-9,
-9,
-4,
-4,
1,
1,
3,
3,
6,
6,
12,
12,
15,
15,
21,
21,
24,
24,
29,
29,
32,
32,
38,
38,
42,
42,
47,
47,
49,
49,
54,
54,
58,
58,
64,
64,
67,
67,
67,
67,
71,
71,
74,
74,
80,
80,
82,
82,
83,
83,
86,
86,
87,
87,
87,
87,
89,
89,
88,
88,
89,
89,
91,
91,
91,
91,
92,
92,
93,
93,
92,
92,
94,
94,
91,
91,
91,
91,
88,
88,
87,
87,
85,
85,
82,
82,
81,
81,
80,
80,
78,
78,
74,
74,
73,
73,
74,
74,
74,
74,
70,
70,
70,
70,
69,
69,
64,
64,
62,
62,
58,
58,
57,
57,
54,
54,
51,
51,
48,
48,
49,
49,
46,
46,
45,
45,
44,
44,
40,
40,
42,
42,
38,
38,
36,
36,
34,
34,
31,
31,
29,
29,
29,
29,
26,
26,
25,
25,
24,
24,
23,
23,
22,
22,
23,
23,
19,
19,
18,
18,
18,
18,
17,
17,
16,
16,
12,
12,
11,
11,
10,
10,
9,
9,
8,
8,
8,
8,
6,
6,
7,
7,
6,
6,
5,
5,
4,
4,
3,
3,
4,
4,
2,
2,
5,
5,
2,
2,
2,
2,
2,
2,
3,
3,
1,
1,
2,
2,
2,
2,
0,
0,
3,
3,
2,
2,
1,
1,
0,
0,
-1,
-1,
2,
2,
2,
2,
1,
1,
0,
0,
-1,
-1,
0,
0,
-1,
-1,
-1,
-1,
0,
0,
-1,
-1,
0,
0,
-3,
-3,
-1,
-1,
1,
1,
0,
0,
-1,
-1,
1,
1,
4,
4,
1,
1,
2,
2,
2,
2,
2,
2,
3,
3,
2,
2,
4,
4,
3,
3,
3,
3,
4,
4,
4,
4,
3,
3,
3,
3,
5,
5,
6,
6,
4,
4,
5,
5,
6,
6,
5,
5,
6,
6,
5,
5,
5,
5,
5,
5,
6,
6,
5,
5,
4,
4,
3,
3,
5,
5,
4,
4,
5,
5,
4,
4,
3,
3,
4,
4,
3,
3,
6,
6,
5,
5,
5,
5,
4,
4,
5,
5,
6,
6,
4,
4,
5,
5,
6,
6,
5,
5,
5,
5,
5,
5,
7,
7,
5,
5,
7,
7,
6,
6,
5,
5,
6,
6,
7,
7,
6,
6,
3,
3,
5,
5,
3,
3,
3,
3,
5,
5,
5,
5,
5,
5,
5,
5,
3,
3,
4,
4,
5,
5,
4,
4,
4,
4,
2,
2,
2,
2,
1,
1,
1,
1,
2,
2,
1,
1,
2,
2,
2,
2,
2,
2,
3,
3,
2,
2,
3,
3,
3,
3,
2,
2,
3,
3,
4,
4,
5,
5,
4,
4,
3,
3,
3,
3,
4,
4,
4,
4,
3,
3,
5,
5,
4,
4,
4,
4,
3,
3,
3,
3,
3,
3,
2,
2,
1,
1,
0,
0,
0,
0,
-2,
-2,
-3,
-3,
-4,
-4,
-4,
-4,
-5,
-5,
-5,
-5,
-5,
-5,
-7,
-7,
-6,
-6,
-6,
-6,
-5,
-5,
-5,
-5,
-6,
-6,
-6,
-6,
-6,
-6,
-6,
-6,
-6,
-6,
-6,
-6,
-6,
-6,
-6,
-6,
-6,
-6,
-5,
-5,
-5,
-5,
-3,
-3,
-1,
-1,
1,
1,
1,
1,
3,
3,
1,
1,
4,
4,
5,
5,
6,
6,
6,
6,
6,
6,
6,
6,
8,
8,
8,
8,
9,
9,
11,
11,
10,
10,
10,
10,
10,
10,
9,
9,
9,
9,
8,
8,
9,
9,
7,
7,
4,
4,
3,
3,
3,
3,
-1,
-1,
-1,
-1,
-4,
-4,
-5,
-5,
-5,
-5,
-7,
-7,
-9,
-9,
-11,
-11,
-12,
-12,
-15,
-15,
-19,
-19,
-21,
-21,
-23,
-23,
-27,
-27,
-31,
-31,
-32,
-32,
-33,
-33,
-35,
-35,
-39,
-39,
-38,
-38,
-38,
-38,
-40,
-40,
-41,
-41,
-43,
-43,
-45,
-45,
-48,
-48,
-47,
-47,
-50,
-50,
-51,
-51,
-51,
-51,
-52,
-52,
-54,
-54,
-55,
-55,
-54,
-54,
-53,
-53,
-53,
-53,
-52,
-52,
-50,
-50,
-50,
-50,
-51,
-51,
-49,
-49,
-51,
-51,
-50,
-50,
-49,
-49,
-47,
-47,
-46,
-46,
-46,
-46,
-45,
-45,
-43,
-43,
-39,
-39,
-38,
-38,
-37,
-37,
-37,
-37,
-35,
-35,
-34,
-34,
-31,
-31,
-33,
-33,
-31,
-31,
-30,
-30,
-30,
-30,
-29,
-29,
-30,
-30,
-29,
-29,
-30,
-30,
-30,
-30,
-29,
-29,
-28,
-28,
-29,
-29,
-29,
-29,
-27,
-27,
-29,
-29,
-28,
-28,
-28,
-28,
-26,
-26,
-28,
-28,
-24,
-24,
-25,
-25,
-23,
-23,
-23,
-23,
-20,
-20,
-18,
-18,
-17,
-17,
-16,
-16,
-9,
-9,
-7,
-7,
-3,
-3,
-2,
-2,
3,
3,
5,
5,
8,
8,
12,
12,
15,
15,
18,
18,
22,
22,
27,
27,
33,
33,
42,
42,
41,
41,
48,
48,
51,
51,
58,
58,
61,
61,
62,
62,
65,
65,
68,
68,
70,
70,
72,
72,
78,
78,
80,
80,
84,
84,
87,
87,
88,
88,
90,
90,
91,
91,
92,
92,
93,
93,
90,
90,
92,
92,
91,
91,
88,
88,
89,
89,
89,
89,
90,
90,
89,
89,
88,
88,
87,
87,
87,
87,
86,
86,
83,
83,
84,
84,
80,
80,
78,
78,
77,
77,
73,
73,
71,
71,
70,
70,
67,
67,
67,
67,
66,
66,
64,
64,
61,
61,
59,
59,
57,
57,
54,
54,
53,
53,
49,
49,
46,
46,
45,
45,
43,
43,
42,
42,
39,
39,
37,
37,
37,
37,
33,
33,
33,
33,
32,
32,
29,
29,
30,
30,
26,
26,
27,
27,
25,
25,
23,
23,
22,
22,
20,
20,
17,
17,
17,
17,
15,
15,
14,
14,
12,
12,
11,
11,
10,
10,
10,
10,
10,
10,
8,
8,
9,
9,
8,
8,
4,
4,
6,
6,
4,
4,
4,
4,
3,
3,
3,
3,
0,
0,
3,
3,
0,
0,
3,
3,
1,
1,
2,
2,
3,
3,
5,
5,
3,
3,
3,
3,
1,
1,
0,
0,
0,
0,
-3,
-3,
-1,
-1,
0,
0,
-1,
-1,
0,
0,
-1,
-1,
0,
0,
-6,
-6,
0,
0,
0,
0,
-1,
-1,
-1,
-1,
-1,
-1,
-2,
-2,
-1,
-1,
0,
0,
1,
1,
-1,
-1,
1,
1,
1,
1,
1,
1,
3,
3,
1,
1,
3,
3,
2,
2,
2,
2,
3,
3,
3,
3,
3,
3,
3,
3,
5,
5,
3,
3,
2,
2,
5,
5,
4,
4,
5,
5,
6,
6,
7,
7,
2,
2,
5,
5,
4,
4,
2,
2,
5,
5,
3,
3,
4,
4,
3,
3,
3,
3,
5,
5,
5,
5,
2,
2,
2,
2,
4,
4,
5,
5,
4,
4,
7,
7,
5,
5,
6,
6,
5,
5,
5,
5,
5,
5,
4,
4,
5,
5,
4,
4,
3,
3,
4,
4,
4,
4,
3,
3,
4,
4,
2,
2,
5,
5,
2,
2,
5,
5,
4,
4,
4,
4,
4,
4,
4,
4,
4,
4,
3,
3,
5,
5,
4,
4,
4,
4,
2,
2,
2,
2,
2,
2,
1,
1,
2,
2,
2,
2,
2,
2,
2,
2,
1,
1,
1,
1,
3,
3,
1,
1,
1,
1,
3,
3,
1,
1,
3,
3,
2,
2,
1,
1,
4,
4,
5,
5,
4,
4,
3,
3,
5,
5,
4,
4,
5,
5,
5,
5,
5,
5,
6,
6,
5,
5,
6,
6,
3,
3,
2,
2,
1,
1,
2,
2,
-1,
-1,
-1,
-1,
-1,
-1,
1,
1,
-3,
-3,
-2,
-2,
-2,
-2,
-3,
-3,
-4,
-4,
-3,
-3,
-5,
-5,
-5,
-5,
-6,
-6,
-6,
-6,
-8,
-8,
-7,
-7,
-7,
-7,
-7,
-7,
-6,
-6,
-7,
-7,
-6,
-6,
-6,
-6,
-5,
-5,
-5,
-5,
-3,
-3,
-3,
-3,
-4,
-4,
-2,
-2,
-3,
-3,
-1,
-1,
0,
0,
2,
2,
2,
2,
2,
2,
5,
5,
6,
6,
6,
6,
10,
10,
9,
9,
13,
13,
10,
10,
11,
11,
11,
11,
9,
9,
9,
9,
8,
8,
7,
7,
8,
8,
7,
7,
8,
8,
5,
5,
5,
5,
5,
5,
3,
3,
2,
2,
-1,
-1,
0,
0,
-4,
-4,
-7,
-7,
-8,
-8,
-10,
-10,
-12,
-12,
-15,
-15,
-17,
-17,
-18,
-18,
-22,
-22,
-22,
-22,
-24,
-24,
-26,
-26,
-29,
-29,
-29,
-29,
-33,
-33,
-35,
-35,
-37,
-37,
-39,
-39,
-40,
-40,
-44,
-44,
-44,
-44,
-45,
-45,
-46,
-46,
-47,
-47,
-49,
-49,
-48,
-48,
-50,
-50,
-51,
-51,
-51,
-51,
-52,
-52,
-54,
-54,
-53,
-53,
-52,
-52,
-53,
-53,
-52,
-52,
-53,
-53,
-51,
-51,
-52,
-52,
-50,
-50,
-49,
-49,
-47,
-47,
-45,
-45,
-45,
-45,
-44,
-44,
-42,
-42,
-39,
-39,
-39,
-39,
-38,
-38,
-36,
-36,
-36,
-36,
-34,
-34,
-34,
-34,
-34,
-34,
-32,
-32,
-33,
-33,
-32,
-32,
-30,
-30,
-30,
-30,
-30,
-30,
-28,
-28,
-30,
-30,
-30,
-30,
-29,
-29,
-30,
-30,
-31,
-31,
-32,
-32,
-31,
-31,
-30,
-30,
-29,
-29,
-28,
-28,
-28,
-28,
-26,
-26,
-26,
-26,
-24,
-24,
-24,
-24,
-22,
-22,
-22,
-22,
-20,
-20,
-19,
-19,
-17,
-17,
-15,
-15,
-13,
-13,
-9,
-9,
-5,
-5,
-1,
-1,
5,
5,
9,
9,
11,
11,
15,
15,
19,
19,
22,
22,
26,
26,
30,
30,
32,
32,
38,
38,
43,
43,
47,
47,
52,
52,
56,
56,
61,
61,
65,
65,
69,
69,
72,
72,
75,
75,
75,
75,
79,
79,
80,
80,
82,
82,
83,
83,
86,
86,
87,
87,
88,
88,
89,
89,
90,
90,
90,
90,
90,
90,
92,
92,
90,
90,
89,
89,
87,
87,
88,
88,
85,
85,
86,
86,
85,
85,
83,
83,
82,
82,
81,
81,
78,
78,
78,
78,
75,
75,
75,
75,
73,
73,
70,
70,
67,
67,
66,
66,
64,
64,
61,
61,
60,
60,
58,
58,
54,
54,
53,
53,
51,
51,
48,
48,
46,
46,
45,
45,
42,
42,
42,
42,
38,
38,
37,
37,
37,
37,
34,
34,
33,
33,
32,
32,
30,
30,
28,
28,
28,
28,
25,
25,
24,
24,
22,
22,
21,
21,
19,
19,
20,
20,
18,
18,
16,
16,
15,
15,
13,
13,
12,
12,
9,
9,
10,
10,
9,
9,
7,
7,
6,
6,
5,
5,
5,
5,
5,
5,
3,
3,
5,
5,
5,
5,
3,
3,
2,
2,
3,
3,
2,
2,
3,
3,
2,
2,
1,
1,
2,
2,
3,
3,
1,
1,
0,
0,
1,
1,
-1,
-1,
0,
0,
0,
0,
-1,
-1,
-2,
-2,
-2,
-2,
-1,
-1,
-1,
-1,
-1,
-1,
-2,
-2,
-1,
-1,
0,
0,
-1,
-1,
-1,
-1,
0,
0,
-2,
-2,
0,
0,
1,
1,
0,
0,
1,
1,
0,
0,
0,
0,
2,
2,
1,
1,
2,
2,
3,
3,
3,
3,
3,
3,
4,
4,
3,
3,
2,
2,
4,
4,
4,
4,
3,
3,
4,
4,
6,
6,
4,
4,
3,
3,
4,
4,
3,
3,
3,
3,
4,
4,
1,
1,
5,
5,
3,
3,
2,
2,
5,
5,
4,
4,
4,
4,
6,
6,
6,
6,
4,
4,
3,
3,
5,
5,
5,
5,
5,
5,
3,
3,
3,
3,
5,
5,
5,
5,
5,
5,
5,
5,
1,
1,
5,
5,
3,
3,
4,
4,
4,
4,
5,
5,
3,
3,
5,
5,
3,
3,
5,
5,
4,
4,
3,
3,
5,
5,
2,
2,
4,
4,
3,
3,
1,
1,
4,
4,
3,
3,
1,
1,
2,
2,
2,
2,
3,
3,
2,
2,
2,
2,
2,
2,
1,
1,
1,
1,
2,
2,
4,
4,
2,
2,
1,
1,
1,
1,
3,
3,
2,
2,
2,
2,
5,
5,
3,
3,
3,
3,
6,
6,
6,
6,
5,
5,
4,
4,
5,
5,
2,
2,
4,
4,
5,
5,
2,
2,
3,
3,
2,
2,
3,
3,
3,
3,
2,
2,
2,
2,
3,
3,
2,
2,
1,
1,
-2,
-2,
-2,
-2,
-1,
-1,
-5,
-5,
-3,
-3,
-4,
-4,
-6,
-6,
-4,
-4,
-5,
-5,
-2,
-2,
-5,
-5,
-7,
-7,
-6,
-6,
-5,
-5,
-8,
-8,
-9,
-9,
-6,
-6,
-7,
-7,
-9,
-9,
-8,
-8,
-9,
-9,
-6,
-6,
-5,
-5,
-5,
-5,
-2,
-2,
-3,
-3,
2,
2,
1,
1,
2,
2,
2,
2,
4,
4,
5,
5,
5,
5,
6,
6,
7,
7,
9,
9,
8,
8,
8,
8,
10,
10,
11,
11,
11,
11,
13,
13,
10,
10,
11,
11,
12,
12,
11,
11,
10,
10,
10,
10,
6,
6,
5,
5,
5,
5,
2,
2,
1,
1,
-1,
-1,
-1,
-1,
-2,
-2,
-6,
-6,
-5,
-5,
-10,
-10,
-12,
-12,
-11,
-11,
-15,
-15,
-17,
-17,
-21,
-21,
-21,
-21,
-24,
-24,
-25,
-25,
-29,
-29,
-29,
-29,
-31,
-31,
-33,
-33,
-35,
-35,
-37,
-37,
-39,
-39,
-42,
-42,
-41,
-41,
-41,
-41,
-45,
-45,
-44,
-44,
-44,
-44,
-48,
-48,
-49,
-49,
-50,
-50,
-51,
-51,
-52,
-52,
-50,
-50,
-52,
-52,
-53,
-53,
-52,
-52,
-50,
-50,
-49,
-49,
-47,
-47,
-48,
-48,
-47,
-47,
-46,
-46,
-47,
-47,
-44,
-44,
-43,
-43,
-44,
-44,
-41,
-41,
-42,
-42,
-37,
-37,
-36,
-36,
-35,
-35,
-33,
-33,
-32,
-32,
-31,
-31,
-30,
-30,
-33,
-33,
-30,
-30,
-32,
-32,
-32,
-32,
-31,
-31,
-31,
-31,
-29,
-29,
-29,
-29,
-29,
-29,
-28,
-28,
-27,
-27,
-27,
-27,
-29,
-29,
-29,
-29,
-30,
-30,
-29,
-29,
-30,
-30,
-29,
-29,
-27,
-27,
-27,
-27,
-25,
-25,
-24,
-24,
-22,
-22,
-21,
-21,
-18,
-18,
-16,
-16,
-15,
-15,
-12,
-12,
-10,
-10,
-8,
-8,
-6,
-6,
-4,
-4,
-1,
-1,
4,
4,
10,
10,
13,
13,
17,
17,
21,
21,
28,
28,
29,
29,
33,
33,
37,
37,
42,
42,
48,
48,
51,
51,
54,
54,
59,
59,
63,
63,
65,
65,
70,
70,
72,
72,
74,
74,
78,
78,
79,
79,
82,
82,
82,
82,
83,
83,
85,
85,
87,
87,
88,
88,
86,
86,
90,
90,
89,
89,
88,
88,
88,
88,
88,
88,
89,
89,
87,
87,
88,
88,
87,
87,
86,
86,
83,
83,
82,
82,
81,
81,
79,
79,
78,
78,
75,
75,
74,
74,
73,
73,
71,
71,
67,
67,
65,
65,
64,
64,
62,
62,
59,
59,
58,
58,
56,
56,
53,
53,
52,
52,
51,
51,
46,
46,
45,
45,
43,
43,
42,
42,
40,
40,
38,
38,
37,
37,
34,
34,
34,
34,
31,
31,
29,
29,
29,
29,
27,
27,
25,
25,
24,
24,
22,
22,
22,
22,
19,
19,
18,
18,
16,
16,
15,
15,
14,
14,
12,
12,
12,
12,
10,
10,
9,
9,
9,
9,
8,
8,
7,
7,
6,
6,
6,
6,
6,
6,
5,
5,
5,
5,
4,
4,
4,
4,
3,
3,
3,
3,
2,
2,
1,
1,
2,
2,
1,
1,
2,
2,
0,
0,
2,
2,
0,
0,
1,
1,
2,
2,
-1,
-1,
-1,
-1,
-1,
-1,
-2,
-2,
-2,
-2,
-2,
-2,
-1,
-1,
-1,
-1,
-2,
-2,
-2,
-2,
-1,
-1,
-1,
-1,
-2,
-2,
-1,
-1,
0,
0,
-1,
-1,
0,
0,
1,
1,
0,
0,
1,
1,
1,
1,
1,
1,
1,
1,
1,
1,
2,
2,
2,
2,
3,
3,
4,
4,
5,
5,
4,
4,
3,
3,
4,
4,
4,
4,
3,
3,
5,
5,
3,
3,
4,
4,
3,
3,
4,
4,
3,
3,
3,
3,
4,
4,
4,
4,
4,
4,
4,
4,
4,
4,
4,
4,
4,
4,
5,
5,
5,
5,
4,
4,
3,
3,
4,
4,
5,
5,
3,
3,
3,
3,
5,
5,
3,
3,
4,
4,
6,
6,
5,
5,
6,
6,
5,
5,
5,
5,
5,
5,
5,
5,
4,
4,
3,
3,
4,
4,
4,
4,
3,
3,
5,
5,
5,
5,
5,
5,
5,
5,
6,
6,
5,
5,
5,
5,
5,
5,
4,
4,
4,
4,
2,
2,
2,
2,
1,
1,
0,
0,
2,
2,
-1,
-1,
1,
1,
2,
2,
3,
3,
2,
2,
2,
2,
3,
3,
3,
3,
4,
4,
3,
3,
4,
4,
4,
4,
3,
3,
4,
4,
2,
2,
3,
3,
4,
4,
2,
2,
6,
6,
5,
5,
5,
5,
5,
5,
5,
5,
5,
5,
3,
3,
2,
2,
3,
3,
2,
2,
2,
2,
-1,
-1,
-1,
-1,
-1,
-1,
0,
0,
-1,
-1,
-1,
-1,
-2,
-2,
-2,
-2,
-2,
-2,
-3,
-3,
-3,
-3,
-6,
-6,
-6,
-6,
-7,
-7,
-7,
-7,
-7,
-7,
-7,
-7,
-7,
-7,
-7,
-7,
-5,
-5,
-6,
-6,
-6,
-6,
-5,
-5,
-6,
-6,
-6,
-6,
-2,
-2,
-4,
-4,
-3,
-3,
-1,
-1,
-2,
-2,
-1,
-1,
2,
2,
2,
2,
3,
3,
6,
6,
6,
6,
9,
9,
7,
7,
9,
9,
10,
10,
10,
10,
10,
10,
9,
9,
10,
10,
11,
11,
9,
9,
10,
10,
9,
9,
9,
9,
7,
7,
7,
7,
6,
6,
8,
8,
5,
5,
5,
5,
3,
3,
2,
2,
2,
2,
-2,
-2,
-5,
-5,
-7,
-7,
-9,
-9,
-10,
-10,
-14,
-14,
-16,
-16,
-16,
-16,
-17,
-17,
-21,
-21,
-21,
-21,
-24,
-24,
-27,
-27,
-29,
-29,
-31,
-31,
-31,
-31,
-34,
-34,
-38,
-38,
-39,
-39,
-40,
-40,
-42,
-42,
-43,
-43,
-44,
-44,
-46,
-46,
-47,
-47,
-47,
-47,
-46,
-46,
-48,
-48,
-49,
-49,
-51,
-51,
-51,
-51,
-54,
-54,
-51,
-51,
-52,
-52,
-51,
-51,
-50,
-50,
-47,
-47,
-47,
-47,
-45,
-45,
-46,
-46,
-42,
-42,
-42,
-42,
-42,
-42,
-39,
-39,
-41,
-41,
-39,
-39,
-38,
-38,
-38,
-38,
-38,
-38,
-34,
-34,
-34,
-34,
-35,
-35,
-31,
-31,
-30,
-30,
-29,
-29,
-28,
-28,
-29,
-29,
-32,
-32,
-30,
-30,
-31,
-31,
-30,
-30,
-30,
-30,
-31,
-31,
-31,
-31,
-30,
-30,
-30,
-30,
-30,
-30,
-27,
-27,
-30,
-30,
-28,
-28,
-29,
-29,
-29,
-29,
-28,
-28,
-27,
-27,
-26,
-26,
-23,
-23,
-22,
-22,
-20,
-20,
-20,
-20,
-18,
-18,
-14,
-14,
-13,
-13,
-8,
-8,
-5,
-5,
-6,
-6,
1,
1,
3,
3,
8,
8,
9,
9,
17,
17,
21,
21,
24,
24,
27,
27,
34,
34,
38,
38,
43,
43,
48,
48,
50,
50,
55,
55,
57,
57,
61,
61,
65,
65,
68,
68,
71,
71,
74,
74,
74,
74,
81,
81,
81,
81,
82,
82,
82,
82,
85,
85,
86,
86,
86,
86,
88,
88,
88,
88,
88,
88,
90,
90,
88,
88,
90,
90,
88,
88,
92,
92,
87,
87,
86,
86,
86,
86,
86,
86,
85,
85,
82,
82,
78,
78,
78,
78,
77,
77,
74,
74,
71,
71,
72,
72,
67,
67,
66,
66,
63,
63,
62,
62,
59,
59,
58,
58,
56,
56,
53,
53,
51,
51,
50,
50,
46,
46,
46,
46,
43,
43,
43,
43,
39,
39,
39,
39,
39,
39,
39,
39,
34,
34,
34,
34,
32,
32,
30,
30,
29,
29,
26,
26,
23,
23,
22,
22,
21,
21,
19,
19,
19,
19,
16,
16,
16,
16,
14,
14,
13,
13,
12,
12,
13,
13,
11,
11,
9,
9,
7,
7,
7,
7,
8,
8,
6,
6,
7,
7,
5,
5,
5,
5,
5,
5,
3,
3,
2,
2,
5,
5,
3,
3,
3,
3,
1,
1,
2,
2,
1,
1,
0,
0,
-2,
-2,
0,
0,
-1,
-1,
-1,
-1,
0,
0,
1,
1,
-1,
-1,
-2,
-2,
-2,
-2,
-2,
-2,
-1,
-1,
-3,
-3,
-3,
-3,
-4,
-4,
-4,
-4,
-3,
-3,
-2,
-2,
-2,
-2,
1,
1,
-1,
-1,
0,
0,
-1,
-1,
0,
0,
-1,
-1,
2,
2,
3,
3,
3,
3,
3,
3,
3,
3,
3,
3,
4,
4,
4,
4,
3,
3,
3,
3,
2,
2,
2,
2,
2,
2,
3,
3,
3,
3,
3,
3,
4,
4,
5,
5,
5,
5,
5,
5,
3,
3,
4,
4,
2,
2,
3,
3,
5,
5,
3,
3,
4,
4,
3,
3,
3,
3,
3,
3,
4,
4,
5,
5,
3,
3,
6,
6,
6,
6,
6,
6,
3,
3,
4,
4,
4,
4,
4,
4,
2,
2,
2,
2,
3,
3,
3,
3,
2,
2,
6,
6,
5,
5,
4,
4,
5,
5,
6,
6,
6,
6,
5,
5,
5,
5,
6,
6,
5,
5,
5,
5,
3,
3,
3,
3,
3,
3,
3,
3,
1,
1,
2,
2,
2,
2,
2,
2,
2,
2,
2,
2,
3,
3,
2,
2,
1,
1,
2,
2,
1,
1,
2,
2,
3,
3,
2,
2,
5,
5,
4,
4,
5,
5,
5,
5,
6,
6,
4,
4,
5,
5,
5,
5,
6,
6,
5,
5,
3,
3,
3,
3,
3,
3,
4,
4,
2,
2,
5,
5,
5,
5,
5,
5,
4,
4,
5,
5,
4,
4,
2,
2,
2,
2,
1,
1,
1,
1,
0,
0,
-1,
-1,
-2,
-2,
-3,
-3,
-4,
-4,
-3,
-3,
-5,
-5,
-4,
-4,
-5,
-5,
-6,
-6,
-5,
-5,
-6,
-6,
-5,
-5,
-5,
-5,
-5,
-5,
-6,
-6,
-6,
-6,
-6,
-6,
-5,
-5,
-5,
-5,
-4,
-4,
-4,
-4,
-2,
-2,
-2,
-2,
-1,
-1,
1,
1,
4,
4,
5,
5,
5,
5,
6,
6,
7,
7,
7,
7,
8,
8,
9,
9,
9,
9,
9,
9,
10,
10,
11,
11,
11,
11,
11,
11,
11,
11,
12,
12,
11,
11,
11,
11,
10,
10,
9,
9,
9,
9,
7,
7,
7,
7,
5,
5,
3,
3,
1,
1,
0,
0,
-1,
-1,
-3,
-3,
-2,
